{
  "computeName": "ProductionCompute",
  "pollingIntervals": 0,
  "pollingIntervalSecs": 5,
  "isContinueOnFailure": true,
  "isMock": false,
  "restRetryIntervals": 24,
  "restRetryIntervalSecs": 20,
  "pollingIntervalCnt": null,
  "taskInfo": null,
  "documentSelfLink": null
}