{
  "depRuntimeStateKind": "com:xarisoft:models:AwsComputeRuntimeStateService:AwsComputeRuntimeState",
  "depName": "ProductionCompute",
  "depRestLocation": "xarisoft-base",
  "restPort": 8080,
  "modelName": "demo",
  "areaName": "prodBase",
  "pollingIntervals": 0,
  "pollingIntervalSecs": 5,
  "isContinueOnFailure": true,
  "isMock": false,
  "restRetryIntervals": 24,
  "restRetryIntervalSecs": 20,
  "pollingIntervalCnt": null,
  "taskInfo": null,
  "documentSelfLink": null
}