{
  "computeRuntimeStateKind": "com:xarisoft:models:AwsComputeRuntimeStateService:AwsComputeRuntimeState",
  "computeName": "ProductionCompute",
  "computeRestLocation": "prod-services",
  "pollingIntervals": 0,
  "pollingIntervalSecs": 5,
  "isContinueOnFailure": true,
  "isMock": false,
  "restRetryIntervals": 24,
  "restRetryIntervalSecs": 20,
  "pollingIntervalCnt": null,
  "taskInfo": null,
  "documentSelfLink": null
}