{
  "computeRuntimeStateKind": "com:xarisoft:models:AwsComputeRuntimeStateService:AwsComputeRuntimeState",
  "computeName": "ProductionComputeST",
  "computeRestLocation": "prod-services",
  "pollingIntervals": 0,
  "pollingIntervalSecs": 5,
  "isMock": false,
  "restRetryIntervals": 24,
  "restRetryIntervalSecs": 20
}