{
  "imageName": "xarisoft-docker-dockerv2-virtual.artifactoryonline.com/xarisoft/deployments-model-adapters",
  "bindPort": 9000,
  "exposePort": 9000,
  "containerName": "model-adapters",
  "documentSelfLink": null
}